<?xml version="1.0" encoding="utf-8"?>
<!-- Generator: Adobe Illustrator 15.0.0, SVG Export Plug-In . SVG Version: 6.00 Build 0)  -->
<!DOCTYPE svg PUBLIC "-//W3C//DTD SVG 1.1//EN" "http://www.w3.org/Graphics/SVG/1.1/DTD/svg11.dtd">
<svg version="1.1" id="Layer_1" xmlns="http://www.w3.org/2000/svg" xmlns:xlink="http://www.w3.org/1999/xlink" x="0px" y="0px"
	 width="46.151px" height="43.472px" viewBox="0 0 46.151 43.472" style="enable-background:new 0 0 46.151 43.472;"
	 xml:space="preserve">
<path style="fill:none;stroke:#F2EFE9;stroke-width:1.5;stroke-miterlimit:10;" d="M22.572,32.194l-7.49,7.488
	c-1.456,1.459-3.339,2.296-5.163,2.296c-1.39,0-2.657-0.502-3.567-1.411c-2.2-2.201-1.814-6.039,0.88-8.734l7.49-7.488"/>
<path style="fill:none;stroke:#F2EFE9;stroke-width:1.5;stroke-miterlimit:10;" d="M38.909,12.291c-1.142,0-2.218-0.446-3.028-1.255
	c-1.67-1.675-1.666-4.391,0.004-6.057l2.941-2.946c0.663-0.661,1.835-0.663,2.498,0l3.559,3.56c0.332,0.331,0.519,0.78,0.519,1.248
	c0,0.469-0.187,0.918-0.519,1.249l-2.945,2.947C41.127,11.846,40.055,12.291,38.909,12.291z"/>
<path style="fill:none;stroke:#F3A81D;stroke-width:1.5;stroke-miterlimit:10;" d="M35.919,42.722L35.919,42.722
	c-1.813,0-3.522-0.706-4.808-1.989l-8.54-8.539l-7.849-7.85l-0.51-0.51c-3.673,0.595-7.44-0.616-10.068-3.245
	c-3.208-3.209-4.253-8.035-2.66-12.295c0.211-0.563,0.69-0.98,1.28-1.107c0.59-0.132,1.197,0.053,1.621,0.477l4.757,4.757
	l2.583-0.692l0.69-2.58L7.66,4.39C7.235,3.965,7.056,3.354,7.184,2.767C7.311,2.18,7.729,1.698,8.291,1.488
	c1.311-0.49,2.683-0.738,4.087-0.738c3.101,0,6.016,1.207,8.206,3.399c2.635,2.632,3.832,6.412,3.246,10.071l16.896,16.897
	c1.283,1.282,1.994,2.989,1.994,4.806c0,1.815-0.707,3.522-1.994,4.807C39.443,42.014,37.736,42.722,35.919,42.722z"/>
<line style="fill:none;stroke:#F2EFE9;stroke-width:1.5;stroke-miterlimit:10;" x1="35.887" y1="11.042" x2="28.633" y2="18.296"/>
</svg>
